…
funciones que hayas escrito tú mismo.

Es difícil hacer algo en R sin utilizar algunas de las funciones incorporadas, pero ¿has escrito tus propias funciones? Si no es así, es hora de empezar.

A continuación, dedicaremos algo de tiempo a describir los dos principales tipos de función, por qué usar funciones y luego cómo se construyen.

Para ilustrar nuestros ejemplos, utilizaremos un conjunto de datos de muestra que contiene una serie de medidas diferentes de muestras de algas replicadas. Puedes leer los datos directamente en R desde la web:

library(tidyverse)
algae <- read_csv("Algal_traits.csv")

(o si prefieres descargar el conjunto de datos, Algal_traits.csv).
Al echar un vistazo, vemos un montón de variables como altura, peso, etc.

## # A tibble: 60 × 8
##    Location Type      Species height length dryweight wetwet strength   
##    <chr>    <chr>     <chr>    <dbl>  <dbl>     <dbl>  <dbl> <chr>      
##  1 w1       red.algae a       0.395   2.16     0.956    2.46 2.993355157
##  2 w1       red.algae a       0.0189  1.98     0.0655   1.96 2.756726384
##  3 w1       red.algae a       0.698   4.72     0.200    2.24 2.252360245
##  4 w1       red.algae a       0.139   2.00     0.467    1.53 2.310011661
##  5 w1       red.algae a       0.377   4.41     0.978    2.10 2.334597887
##  6 w2       red.algae a       0.0767  0.572    0.100    1.61 <NA>       
##  7 w2       red.algae a       0.933   0.839    0.564    1.75 2.472866529
##  8 w2       red.algae a       0.0617  4.62     0.252    1.72 2.635546813
##  9 w2       red.algae a       0.991   4.08     0.254    1.71 2.521458416
## 10 w2       red.algae a       0.314   2.13     0.125    2.14 2.580392619
## # ℹ 50 more rows
…
